==========================================================================
init_conf.txt：使用する機器に依存する設定ファイル。多くのコンテンツに共通する設定をする
	conf.txt（コンテンツ毎の設定）の設定が優先される。
	
		以下のファイルをdata/conf/conf.txtとしてコピーして下さい。
==========================================================================

init_conf_DVD.txt：DVD用の設定ファイル