==========================================================================
conf.txt：コンテンツごとの設定ファイル
	以下のファイルをdata/conf/conf.txtとしてコピーして下さい。
==========================================================================
conf.txt：標準設定ファイル。すべてコメント・アウトされている。
