#NumberOfTextures 2  :[ 1 or 2 ]
!#SecondTexture_at_startup 0

#Animation 0 :[0: stop, 1: play, -1: reverse play]
#AnimationSpeed 8 :[-30,30]
#StopAt1stMap .0
#StopAtFinalMap .0

#Longitude 0.
