===================================================
--- Window 1 ---
!#TextureName data/images/map-english/map_
#ScreenName data/images/screen-english/screen_
!#SecondTextureName data/images/map_second-english/map_
#SecondScreenName data/images/screen_second-english/screen_

--- Window 2 ---
!#TextureName2 data/images/map-english/map_
#ScreenName2 data/images/screen-english/screen_
!#SecondTextureName2 data/images/map_second-english/map_
#SecondScreenName2 data/images/screen_second-english/screen_  
----------------------	
===================================================
